Lesson 02: Comparing Two Texts (Words + Bigrams) – Text as Data: Language Models, AI, and NLP Techniques for Historical and Literary Texts
…
word_counts <- texts %>%
  unnest_tokens(word, text) %>%
  mutate(word = str_to_lower(word)) %>%
  anti_join(all_stopwords, by = "word") %>%
  count(doc_title, word, sort = TRUE)

word_counts

# A tibble: 7,443 × 3
   doc_title word            n
   <chr>     <chr>       <int>
 1 Text A    trade         232
 2 Text A    exchange      186
 3 Text B    trade         185
 4 Text A    ſo            184
 5 Text A    malynes       158
 6 Text A    merchants     126
 7 Text A    mony          118
 8 Text A    hee           115
 9 Text A    kingdome      113
10 Text A    commodities    96
# ℹ 7,433 more rows
…
Bigrams: moving beyond single words

Single-word frequencies tell us what terms are common.

Bigrams allow us to see which words appear together, capturing short phrases and recurring ideas.

A bigram is simply a sequence of two adjacent words.

bigrams <- texts %>%
  unnest_tokens(bigram, text, token = "ngrams", n = 2)

bigrams

# A tibble: 53,809 × 2
   doc_title bigram           
   <chr>     <chr>            
 1 Text A    the circle       
 2 Text A    circle of        
 3 Text A    of commerce      
 4 Text A    commerce the     
 5 Text A    the prooeme      
 6 Text A    prooeme herodotvs
 7 Text A    herodotvs in     
 8 Text A    in his           
 9 Text A    his clio         
10 Text A    clio reportes    
# ℹ 53,799 more rows

bigrams_separated <- bigrams %>%
  separate(bigram, into = c("word1", "word2"), sep = " ")

bigrams_separated

# A tibble: 53,809 × 3
   doc_title word1     word2    
   <chr>     <chr>     <chr>    
 1 Text A    the       circle   
 2 Text A    circle    of       
 3 Text A    of        commerce 
 4 Text A    commerce  the      
 5 Text A    the       prooeme  
 6 Text A    prooeme   herodotvs
 7 Text A    herodotvs in       
 8 Text A    in        his      
 9 Text A    his       clio     
10 Text A    clio      reportes 
# ℹ 53,799 more rows

bigrams_filtered <- bigrams_separated %>%
  filter(
    !word1 %in% all_stopwords$word,
    !word2 %in% all_stopwords$word
  )

bigrams_filtered

# A tibble: 7,622 × 3
   doc_title word1    word2    
   <chr>     <chr>    <chr>    
 1 Text A    prooeme  herodotvs
 2 Text A    clio     reportes 
 3 Text A    croesvs  king     
 4 Text A    ſonne    borne    
 5 Text A    borne    dumbe    
 6 Text A    king     himſelf  
 7 Text A    imminent danger   
 8 Text A    certaine perſian  
 9 Text A    perſian  ready    
10 Text A    lay      violent  
# ℹ 7,612 more rows

We remove bigrams where either word is a stopword, since phrases like “of the” or “and the” are rarely meaningful analytically.

bigram_counts <- bigrams_filtered %>%
  count(doc_title, word1, word2, sort = TRUE)

bigram_counts

# A tibble: 6,449 × 4
   doc_title word1     word2           n
   <chr>     <chr>     <chr>       <int>
 1 Text B    common    wealth         48
 2 Text A    merchants adventurers    35
 3 Text B    latin     alphabet       34
 4 Text A    low       countries      21
 5 Text B    east      india          20
 6 Text A    free      trade          19
 7 Text A    latin     alphabet       17
 8 Text A    natiue    commodities    17
 9 Text A    forraine  commodities    16
10 Text A    letters   patents        14
# ℹ 6,439 more rows

bigram_counts <- bigram_counts %>%
  unite(bigram, word1, word2, sep = " ")

bigram_counts

# A tibble: 6,449 × 3
   doc_title bigram                    n
   <chr>     <chr>                 <int>
 1 Text B    common wealth            48
 2 Text A    merchants adventurers    35
 3 Text B    latin alphabet           34
 4 Text A    low countries            21
 5 Text B    east india               20
 6 Text A    free trade               19
 7 Text A    latin alphabet           17
 8 Text A    natiue commodities       17
 9 Text A    forraine commodities     16
10 Text A    letters patents          14
# ℹ 6,439 more rows
