Week 05: Text Representation (2) – Text as Data: Language Models, AI, and NLP Techniques for Historical and Literary Texts
…
Before we jump into the details of these measures, we need to aggregate at the sentence level and count syntactic features for each individual sentence:

sentence_df <- syntax_df %>%
  filter(is_word) %>%           #count words (not punctuation)
  group_by(document, sentence_id) %>%   #group by document and sentence
  summarise(
    words          = n(),   #number of words per sentence
    clauses        = sum(is_clause), # number of clauses per sentence
    dep_clauses    = sum(is_dep_clause), #number of dependent clauses per sentence
    .groups = "drop"
  )

sentence_df

# A tibble: 1,872 × 5
   document sentence_id words clauses dep_clauses
   <chr>          <int> <int>   <int>       <int>
 1 A69858             1    29       1           2
 2 A69858             2    44       3           2
 3 A69858             3    45       6           5
 4 A69858             4    28       1           3
 5 A69858             5     6       0           0
 6 A69858             6    39       1           0
 7 A69858             7    23       0           2
 8 A69858             8    64       7           5
 9 A69858             9    35       3           3
10 A69858            10    27       1           2
# ℹ 1,862 more rows
…
