Week 02: Basics – Text as Data: Language Models, AI, and NLP Techniques for Historical and Literary Texts
…
mutate: here we are normalizing all words to lower case. This is a research decision: I want to count words like “Money,” “MONEY,” and “money” as the same token, so that I can ask how often the texts talk about “money” regardless of capitalization. Note: mutate is part of the dplyr package.

anti_join: this is where we remove the stopwords we defined earlier and keeps only the tokens that should (we think!) give us the information we want. Look over the information on joins here and make sure that you understand what it’s doing and understand why the tibble format is important! We will be using anti_join frequently.

Finally we count.

word_counts <- texts %>%
  unnest_tokens(word, text) %>%
  mutate(word = str_to_lower(word)) %>%
  anti_join(all_stopwords, by = "word") %>%
  count(doc_title, word, sort = TRUE)

word_counts

# A tibble: 7,438 × 3
   doc_title word            n
   <chr>     <chr>       <int>
 1 Text A    trade         233
 2 Text A    exchange      186
 3 Text B    trade         185
 4 Text A    ſo            184
 5 Text A    malynes       158
 6 Text A    merchants     126
 7 Text A    mony          118
 8 Text A    hee           115
 9 Text A    kingdome      113
10 Text A    commodities    96
# ℹ 7,428 more rows
…
Bigrams: starting to think about context

Single-word frequencies tell us which terms are common, but they don’t tell us about the context of these words. Our next step will be to try to get a first, basic understanding of how words in our texts fit together. Bigrams allow us to see which words appear together, capturing short phrases and recurring ideas. This is also our first step towards exploring formulaic language,and discursive patterns, rather than just isolated vocabulary.

You should be able to understand the syntax of this first step (make sure that you do!):

bigrams <- texts %>%
  unnest_tokens(bigram, text, token = "ngrams", n = 2)

bigrams

# A tibble: 53,816 × 2
   doc_title bigram           
   <chr>     <chr>            
 1 Text A    the circle       
 2 Text A    circle of        
 3 Text A    of commerce      
 4 Text A    commerce the     
 5 Text A    the prooeme      
 6 Text A    prooeme herodotvs
 7 Text A    herodotvs in     
 8 Text A    in his           
 9 Text A    his clio         
10 Text A    clio reportes    
# ℹ 53,806 more rows

Currently, each bigram is stored as a single string. We want to remove stopwords (using the custom list we created earlier). In order to do that, we need to be able to inspect each word separately in the bigram. separate() does just that! It takes the bigram column and splits each string at the space character. It then creates two new columns: “word1” and “word2.”

bigrams_separated <- bigrams %>%
  separate(bigram, into = c("word1", "word2"), sep = " ")

bigrams_separated

# A tibble: 53,816 × 3
   doc_title word1     word2    
   <chr>     <chr>     <chr>    
 1 Text A    the       circle   
 2 Text A    circle    of       
 3 Text A    of        commerce 
 4 Text A    commerce  the      
 5 Text A    the       prooeme  
 6 Text A    prooeme   herodotvs
 7 Text A    herodotvs in       
 8 Text A    in        his      
 9 Text A    his       clio     
10 Text A    clio      reportes 
# ℹ 53,806 more rows

Now we can remove all_stopwords

bigrams_filtered <- bigrams_separated %>%
  filter(
    !word1 %in% all_stopwords$word,
    !word2 %in% all_stopwords$word
  )

bigrams_filtered

# A tibble: 7,625 × 3
   doc_title word1    word2    
   <chr>     <chr>    <chr>    
 1 Text A    prooeme  herodotvs
 2 Text A    clio     reportes 
 3 Text A    croesvs  king     
 4 Text A    ſonne    borne    
 5 Text A    borne    dumbe    
 6 Text A    king     himſelf  
 7 Text A    imminent danger   
 8 Text A    certaine perſian  
 9 Text A    perſian  ready    
10 Text A    lay      violent  
# ℹ 7,615 more rows

We remove bigrams where either word is a stopword, since phrases like “of the” or “and the” are rarely meaningful analytically.

bigram_counts <- bigrams_filtered %>%
  count(doc_title, word1, word2, sort = TRUE)

bigram_counts

# A tibble: 6,447 × 4
   doc_title word1     word2           n
   <chr>     <chr>     <chr>       <int>
 1 Text B    common    wealth         48
 2 Text A    merchants adventurers    35
 3 Text B    latin     alphabet       34
 4 Text A    low       countries      21
 5 Text A    free      trade          20
 6 Text B    east      india          20
 7 Text A    latin     alphabet       17
 8 Text A    natiue    commodities    17
 9 Text A    forraine  commodities    16
10 Text A    common    wealth         14
# ℹ 6,437 more rows

Now that we removed the stopwords, we can use unite to put the bigrams back together:

bigram_counts <- bigram_counts %>%
  unite(bigram, word1, word2, sep = " ")

bigram_counts

# A tibble: 6,447 × 3
   doc_title bigram                    n
   <chr>     <chr>                 <int>
 1 Text B    common wealth            48
 2 Text A    merchants adventurers    35
 3 Text B    latin alphabet           34
 4 Text A    low countries            21
 5 Text A    free trade               20
 6 Text B    east india               20
 7 Text A    latin alphabet           17
 8 Text A    natiue commodities       17
 9 Text A    forraine commodities     16
10 Text A    common wealth            14
# ℹ 6,437 more rows
…
bigram_wide <- bigram_relative %>%
  select(doc_title, bigram, proportion) %>%
  pivot_wider(
    names_from = doc_title,
    values_from = proportion,
    values_fill = 0
  )

bigram_wide

# A tibble: 6,377 × 3
   bigram                `Text B` `Text A`
   <chr>                    <dbl>    <dbl>
 1 common wealth         0.0187    0.00277
 2 merchants adventurers 0         0.00692
 3 latin alphabet        0.0133    0.00336
 4 low countries         0.00156   0.00415
 5 free trade            0         0.00395
 6 east india            0.00779   0      
 7 natiue commodities    0.00273   0.00336
 8 forraine commodities  0         0.00316
 9 letters patents       0.000390  0.00277
10 thouſand pounds       0         0.00277
# ℹ 6,367 more rows
…
