Week 03: Dictionaries – Text as Data: Language Models, AI, and NLP Techniques for Historical and Literary Texts
…
We are going to work on two straightforward “trade-focused” strategies that will give us a preliminary way to capture the concept of trade through token analysis:

Filter bigrams that literally contain the token trade

Use a small “trade lexicon” to capture near-synonyms (e.g., traffick, commerce, merchant, exchange)

Let’s start with the first strategy: which bigrams contain the token trade?

trade_bigrams <- bigram_counts %>%
filter(str_detect(bigram, "\\btrade\\b")) # this line should look familiar

trade_bigrams %>% slice_head(n = 25)

# A tibble: 25 × 2
   bigram                n
   <chr>             <int>
 1 free trade           20
 2 cloth trade          10
 3 trade cap             5
 4 adventurers trade     4
 5 fishing trade         3
 6 kingdomes trade       3
 7 forraine trade        2
 8 india trade           2
 9 persia trade          2
10 trade free            2
# ℹ 15 more rows
…
trade_lexicon <- c(
  "trade", "traffick", "traffic", "commerce", "merchant", "merchants",
  "exchange", "export", "import", "commodity", "commodities",
  "navigation", "shipping", "market", "markets"
)

trade_theme_bigrams <- bigrams_clean %>%
  filter(word1 %in% trade_lexicon | word2 %in% trade_lexicon) %>%
  count(word1, word2, sort = TRUE) %>%
  unite("bigram", word1, word2, sep = " ")

trade_theme_bigrams %>% slice_head(n = 25)

# A tibble: 25 × 2
   bigram                    n
   <chr>                 <int>
 1 merchants adventurers    35
 2 free trade               20
 3 natiue commodities       17
 4 forraine commodities     16
 5 cloth trade              10
 6 exchange betweene         8
 7 commodities exported      5
 8 commodities imported      5
 9 low exchange              5
10 politique exchange        5
# ℹ 15 more rows
…
