Week 06: Co-occurrence, PMI, and moving towards Word2Vec – Text as Data: Language Models, AI, and NLP Techniques for Historical and Literary Texts
…
# A tibble: 1 × 1
      n
  <int>
1  1011

OK, now we know that there are plenty of our anchor tokens, but we also need to know where they are so that we can find the windows around them.

anchor_hits <- tokens %>%
  filter(word == anchor) %>%
  select(doc_title, anchor_id = token_id) # organize by location of anchor position

#Let's take a look at the tibble
anchor_hits

# A tibble: 1,011 × 2
   doc_title  anchor_id
   <chr>          <int>
 1 wealth.txt        35
 2 wealth.txt        61
 3 wealth.txt        74
 4 wealth.txt        81
 5 wealth.txt       114
 6 wealth.txt       147
 7 wealth.txt       166
 8 wealth.txt       230
 9 wealth.txt       487
10 wealth.txt       521
# ℹ 1,001 more rows
…
Now, each row in windows represents one word that appeared near one specific occurrence of the anchor. Next, we can collapse all the context window rows into a single ranked list by adding them up. This will measure how many times any given word appears within ±5 window_size tokens of the anchor across the whole document.

cooc <- windows %>%
  count(word, sort = TRUE, name = "cooc_n")

cooc

# A tibble: 1,085 × 2
   word    cooc_n
   <chr>    <int>
 1 the       1146
 2 of        1122
 3 and        400
 4 in         248
 5 to         211
 6 which      166
 7 wages      158
 8 produce    149
 9 a          145
10 is         142
# ℹ 1,075 more rows
…
\(P(a)\) is the overall probability of the anchor word \(a\) in the document

If PMI is high, the word \(w\) appears near the anchor more often than we would expect by chance, given how frequent each word is overall. Reference if you want a deeper dive into PMI, see Appendix J in Jurafsky and Martin.

First, we compute the overall word frequencies in the document, \(P(w)\) and \(P(a)\):

total_tokens <- nrow(tokens)

word_freq <- tokens %>%
  count(word, name = "word_n") %>%
  mutate(p_word = word_n / total_tokens)

word_freq

# A tibble: 10,228 × 3
   word      word_n     p_word
   <chr>      <int>      <dbl>
 1 0            440 0.00115   
 2 0d             1 0.00000261
 3 1            192 0.000502  
 4 1,000,000      2 0.00000523
 5 1,001,171      1 0.00000261
 6 1,101,107      1 0.00000261
 7 1,200,000      1 0.00000261
 8 1,214,583      1 0.00000261
 9 1,243,120      1 0.00000261
10 1,245,808      1 0.00000261
# ℹ 10,218 more rows
…
We divide by the total number of tokens across all anchor windows.

The result is \(P(w,a)\).

This definition allows us to treat co-occurrence as a probabilistic event rather than just a raw count.

total_window_tokens <- nrow(windows)

p_w_given_windows <- windows %>%
  count(word, name = "cooc_n") %>%
  mutate(p_word_in_windows = cooc_n / total_window_tokens)

p_w_given_windows

# A tibble: 1,085 × 3
   word     cooc_n p_word_in_windows
   <chr>     <int>             <dbl>
 1 1740          1         0.0000989
 2 30            1         0.0000989
 3 a           145         0.0143   
 4 able          3         0.000297 
 5 about         4         0.000396 
 6 above         6         0.000593 
 7 abridge       7         0.000692 
 8 abridged      1         0.0000989
 9 abridges      1         0.0000989
10 absorbed      1         0.0000989
# ℹ 1,075 more rows

This is effectively P(w| in anchor windows), which is proportional to \(P(w,a)\) for our purposes.

Next, we join baseline frequencies and compute PMI

pmi_tbl <- p_w_given_windows %>%
  left_join(word_freq, by = "word") %>%
  mutate(
    pmi = log2(p_word_in_windows / (p_word * anchor_stats$p_anchor))
  ) %>%
  arrange(desc(pmi))

pmi_tbl

# A tibble: 1,085 × 6
   word        cooc_n p_word_in_windows word_n     p_word   pmi
   <chr>        <int>             <dbl>  <int>      <dbl> <dbl>
 1 tenfold          2         0.000198       1 0.00000261  14.8
 2 abridges         1         0.0000989      1 0.00000261  13.8
 3 ayrshire         1         0.0000989      1 0.00000261  13.8
 4 carron           1         0.0000989      1 0.00000261  13.8
 5 complexly        2         0.000198       2 0.00000523  13.8
 6 conceives        1         0.0000989      1 0.00000261  13.8
 7 declamation      1         0.0000989      1 0.00000261  13.8
 8 differs          1         0.0000989      1 0.00000261  13.8
 9 fashioning       1         0.0000989      1 0.00000261  13.8
10 fattened         1         0.0000989      1 0.00000261  13.8
# ℹ 1,075 more rows

This should start to give us a clearer picture! However, we do have to worry about rare words. PMI can become misleadingly large when cooc_n is very small (e.g., a word appears once in a window). A standard practice is to filter by minimum co-occurrence count.

pmi_tbl_filtered <- pmi_tbl %>%
  filter(cooc_n >= 3) %>%        # adjust threshold as needed
  arrange(desc(pmi))

pmi_tbl_filtered

# A tibble: 423 × 6
   word         cooc_n p_word_in_windows word_n    p_word   pmi
   <chr>         <int>             <dbl>  <int>     <dbl> <dbl>
 1 abridge           7          0.000692      8 0.0000209  13.6
 2 men’s             7          0.000692      8 0.0000209  13.6
 3 hour’s            4          0.000396      5 0.0000131  13.5
 4 division         51          0.00504      65 0.000170   13.5
 5 divisions         3          0.000297      5 0.0000131  13.1
 6 rewarded          6          0.000593     10 0.0000261  13.1
 7 skilled           3          0.000297      5 0.0000131  13.1
 8 subdivisions      3          0.000297      5 0.0000131  13.1
 9 powers           19          0.00188      34 0.0000889  13.0
10 productive       95          0.00940     175 0.000457   12.9
# ℹ 413 more rows
…
